unit,quantile,age,sex,levels,geo\time	2005 	2006 	2007 	2008 	2009 	2010 	2011 	2012 	2013 	2014 	2015 	2016 	2017 	2018 
PC,TOTAL,Y_GE16,F,VG_G,AT	69.2 	70.9 	70.8 	68.8 	68.3 	67.2 	66.8 	68.5 	66.7 	67.4 	68.0 	68.6 	68.8 	70.3 
PC,TOTAL,Y_GE16,F,VG_G,BE	70.0 	70.9 	71.0 	71.4 	70.9 	70.9 	71.7 	72.2 	71.9 	72.9 	71.5 	71.0 	71.3 	72.3 
PC,TOTAL,Y_GE16,F,VG_G,BG	55.3 	55.3 	56.9 	57.7 	60.2 	62.4 	63.2 	62.8 	62.7 	62.7 	61.9 	62.0 b	63.0 	63.0 
PC,TOTAL,Y_GE16,F,VG_G,CH	: 	: 	81.8 	79.4 	78.5 	79.0 	78.7 	80.0 	78.4 	76.1 	77.3 	75.7 	78.6 	78.6 
PC,TOTAL,Y_GE16,F,VG_G,CY	71.7 	73.3 	74.2 	74.1 	73.6 	72.3 	73.7 	75.6 	74.8 	76.4 	79.2 	78.2 	77.3 	76.3 
PC,TOTAL,Y_GE16,F,VG_G,CZ	56.4 	56.3 	58.7 	58.4 	59.4 	60.3 	57.3 	58.5 	57.9 	59.0 	59.7 	59.1 	60.6 	60.8 
PC,TOTAL,Y_GE16,F,VG_G,DE	57.8 	57.7 	57.2 	62.5 	63.6 	64.2 	63.3 	63.9 	62.9 	63.6 	63.2 	63.6 	63.8 	64.4 
PC,TOTAL,Y_GE16,F,VG_G,DK	73.6 	72.6 	72.5 	72.9 	71.4 	69.7 	69.7 	70.3 	70.2 	70.6 	70.3 	70.3 	69.6 	68.0 
PC,TOTAL,Y_GE16,F,VG_G,EA18	60.9 	61.2 	62.5 	64.4 	64.3 	65.2 	65.1 	66.1 	64.5 	65.6 	65.3 	66.2 	68.0 	67.5 
PC,TOTAL,Y_GE16,F,VG_G,EA19	60.6 	60.9 	62.3 	64.2 	64.1 	65.0 	64.9 	65.9 	64.3 	65.4 	65.1 	66.0 	67.8 	67.3 
PC,TOTAL,Y_GE16,F,VG_G,EE	51.0 	50.8 	51.7 	52.8 	50.5 	50.8 	50.1 	50.8 	51.0 	50.0 	50.2 	50.6 	50.5 	49.9 
PC,TOTAL,Y_GE16,F,VG_G,EL	74.7 	73.9 	74.0 	73.2 	72.5 	73.5 	74.1 	72.3 	71.3 	71.2 	71.5 	71.6 	71.6 	74.4 
PC,TOTAL,Y_GE16,F,VG_G,ES	63.7 	64.6 	64.2 	68.8 	66.9 	68.5 	72.4 	71.7 	68.3 	69.5 	69.8 	69.8 	71.8 	70.8 
PC,TOTAL,Y_GE16,F,VG_G,EU	61.3 	61.7 	63.0 	65.0 	64.9 	65.6 	65.4 	65.6 	64.5 	64.8 	64.7 	65.3 	67.3 	66.9 
PC,TOTAL,Y_GE16,F,VG_G,EU27	: 	: 	63.0 	65.0 	64.9 	65.7 	65.5 	65.7 	64.6 	64.9 	64.7 	65.4 	67.4 	67.0 
PC,TOTAL,Y_GE16,F,VG_G,EU28	: 	: 	: 	: 	: 	65.6 	65.4 	65.6 	64.5 	64.8 	64.7 	65.3 	67.3 	66.9 
PC,TOTAL,Y_GE16,F,VG_G,FI	68.5 	68.3 	67.8 	67.7 	68.6 	67.0 	67.7 	66.1 	64.1 	69.3 	69.5 	69.0 	68.6 	67.3 
PC,TOTAL,Y_GE16,F,VG_G,FR	66.1 	66.8 	68.6 	66.9 	66.2 	65.0 	64.4 	66.1 	64.2 	65.7 	65.7 	64.7 	65.7 	65.6 
PC,TOTAL,Y_GE16,F,VG_G,HR	: 	: 	: 	: 	: 	48.4 	45.9 	45.8 	46.5 	55.6 	55.8 	56.4 	58.3 	58.4 
PC,TOTAL,Y_GE16,F,VG_G,HU	42.1 	44.8 	43.6 	52.0 	52.4 	51.6 	52.1 	53.2 	52.5 	53.5 	53.6 	56.4 	55.5 	57.6 
PC,TOTAL,Y_GE16,F,VG_G,IE	82.1 	82.0 	83.9 	83.2 	82.9 	82.8 	83.1 	82.8 	80.8 	81.9 	82.0 	83.1 	83.6 	84.4 p
PC,TOTAL,Y_GE16,F,VG_G,IS	76.7 	79.6 	75.8 	78.8 	78.7 	76.2 	76.1 	74.8 	: 	72.9 	72.7 	73.2 	: 	: 
PC,TOTAL,Y_GE16,F,VG_G,IT	53.9 	53.0 	59.3 	59.4 	59.5 	62.9 	61.5 	64.7 	62.8 	64.5 	62.7 	67.8 b	74.1 	70.5 
PC,TOTAL,Y_GE16,F,VG_G,LT	37.9 	39.0 	43.9 	43.8 	45.0 	47.1 	39.9 	40.7 	42.2 	40.6 	38.5 	40.0 	40.2 	41.1 
PC,TOTAL,Y_GE16,F,VG_G,LU	71.9 	72.3 	72.8 	72.7 	71.6 	74.0 	70.2 	72.6 	69.9 	71.2 	68.6 	66.9 b	69.7 	66.5 
PC,TOTAL,Y_GE16,F,VG_G,LV	30.6 	35.5 	38.4 	40.0 	42.3 	43.6 	42.4 	43.1 	41.3 	42.1 	42.3 	42.8 	39.7 	43.1 
PC,TOTAL,Y_GE16,F,VG_G,ME	: 	: 	: 	: 	: 	: 	: 	: 	65.8 	68.6 	65.8 	65.6 	65.5 	: 
PC,TOTAL,Y_GE16,F,VG_G,MK	: 	: 	: 	: 	: 	69.8 	69.6 	73.3 	72.9 	76.3 	74.4 	75.6 	72.3 	: 
PC,TOTAL,Y_GE16,F,VG_G,MT	69.0 	72.3 	72.0 	72.2 	66.6 	65.6 	68.2 	70.7 	70.4 	73.3 	70.5 	71.5 	73.5 	72.5 
PC,TOTAL,Y_GE16,F,VG_G,NL	73.5 	74.0 	73.8 	73.9 	74.9 	75.7 	73.5 	72.1 	71.5 	74.2 	72.6 	73.3 b	73.3 	73.1 
PC,TOTAL,Y_GE16,F,VG_G,NO	70.7 	72.5 	74.3 	74.0 	74.6 	74.2 	71.1 	77.8 	74.8 	77.0 	76.5 	75.2 	76.0 	74.4 
PC,TOTAL,Y_GE16,F,VG_G,PL	51.1 	50.9 	53.3 	54.6 	53.0 	54.8 	54.9 	54.5 	54.9 	55.3 	54.9 	55.6 	56.1 	56.9 
PC,TOTAL,Y_GE16,F,VG_G,PT	40.8 	43.4 	41.3 	43.4 	42.6 	44.2 	44.6 	42.9 	41.5 	42.0 	42.0 	43.3 	44.4 	44.8 
PC,TOTAL,Y_GE16,F,VG_G,RO	64.6 	64.6 	63.2 	63.9 	63.7 	63.5 	67.2 	62.8 	63.6 	64.0 	65.3 	65.5 	65.9 	65.7 
PC,TOTAL,Y_GE16,F,VG_G,RS	: 	: 	: 	: 	: 	: 	: 	: 	45.7 	53.4 	53.1 	53.7 	50.8 	53.2 
PC,TOTAL,Y_GE16,F,VG_G,SE	72.4 	73.5 	75.3 	73.9 	74.7 	76.1 	76.6 	77.7 	77.2 	75.9 	74.5 	72.4 	74.8 	73.7 
PC,TOTAL,Y_GE16,F,VG_G,SI	51.0 	53.3 	55.2 	56.8 	57.1 	56.4 	57.6 	59.8 	61.8 	61.6 	61.7 	61.0 	62.1 	61.7 
PC,TOTAL,Y_GE16,F,VG_G,SK	48.7 	48.2 	48.6 	55.2 	57.8 	59.4 	59.0 	60.9 	61.5 	61.2 	62.4 	63.2 	63.4 	62.9 
PC,TOTAL,Y_GE16,F,VG_G,TR	: 	57.6 	61.5 	62.9 	58.7 	60.0 	61.6 	63.1 	62.5 	63.0 	61.2 	64.3 	63.5 	: 
PC,TOTAL,Y_GE16,F,VG_G,UK	73.8 	75.3 	76.2 	79.0 	78.8 	79.0 	76.5 	73.2 	73.8 	69.6 	69.8 	68.9 	73.4 b	72.4 p
PC,TOTAL,Y_GE16,M,VG_G,AT	73.0 	73.0 	74.1 	71.6 	72.0 	71.9 	70.8 	71.7 	70.7 	71.9 	71.9 	72.0 	72.0 	73.1 
PC,TOTAL,Y_GE16,M,VG_G,BE	75.9 	77.9 	77.2 	76.6 	76.2 	75.5 	75.5 	76.9 	77.0 	77.4 	77.8 	76.6 	77.5 	77.3 
PC,TOTAL,Y_GE16,M,VG_G,BG	66.2 	66.2 	67.4 	67.9 	70.7 	72.5 	71.6 	71.0 	70.4 	69.5 	69.5 	69.8 b	70.6 	70.2 
PC,TOTAL,Y_GE16,M,VG_G,CH	: 	: 	86.4 	83.2 	83.5 	84.2 	84.0 	84.1 	83.1 	80.8 	82.1 	79.6 	81.8 	82.8 
PC,TOTAL,Y_GE16,M,VG_G,CY	78.8 	79.1 	79.5 	79.1 	77.9 	76.9 	78.0 	78.9 	78.2 	79.0 	81.4 	79.3 	79.0 	79.4 
PC,TOTAL,Y_GE16,M,VG_G,CZ	62.1 	62.7 	64.2 	65.3 	63.7 	65.0 	62.6 	63.1 	62.2 	63.3 	63.5 	62.3 	63.8 	64.0 
PC,TOTAL,Y_GE16,M,VG_G,DE	62.6 	63.5 	62.9 	66.9 	66.9 	66.5 	66.4 	67.0 	67.0 	66.9 	66.0 	66.8 	67.1 	66.6 
PC,TOTAL,Y_GE16,M,VG_G,DK	79.9 	77.6 	78.4 	75.7 	73.4 	72.9 	73.9 	72.1 	75.1 	74.3 	73.1 	72.4 	72.9 	74.5 
PC,TOTAL,Y_GE16,M,VG_G,EA18	67.0 	67.5 	68.9 	70.5 	70.2 	70.4 	70.6 	71.4 	70.6 	71.1 	70.3 	71.0 	72.7 	72.0 
PC,TOTAL,Y_GE16,M,VG_G,EA19	66.8 	67.3 	68.7 	70.4 	70.1 	70.3 	70.5 	71.2 	70.5 	71.0 	70.2 	70.9 	72.6 	71.9 
PC,TOTAL,Y_GE16,M,VG_G,EE	57.5 	56.5 	55.4 	57.0 	53.6 	55.7 	54.5 	54.9 	56.9 	54.7 	53.4 	56.3 	55.4 	54.5 
PC,TOTAL,Y_GE16,M,VG_G,EL	80.5 	79.8 	79.5 	79.2 	78.6 	78.0 	78.9 	78.0 	77.1 	76.2 	76.8 	76.7 	76.9 	78.5 
PC,TOTAL,Y_GE16,M,VG_G,ES	70.4 	71.1 	71.2 	76.4 	74.7 	75.5 	78.7 	77.3 	75.3 	76.4 	75.5 	75.3 	76.8 	76.7 
PC,TOTAL,Y_GE16,M,VG_G,EU	67.1 	67.8 	69.2 	71.0 	70.9 	71.0 	70.6 	71.2 	70.3 	70.2 	69.7 	70.2 	72.3 	71.6 
PC,TOTAL,Y_GE16,M,VG_G,EU27	: 	: 	69.2 	71.0 	70.9 	71.1 	70.7 	71.3 	70.4 	70.3 	69.7 	70.3 	72.4 	71.7 
PC,TOTAL,Y_GE16,M,VG_G,EU28	: 	: 	: 	: 	: 	71.0 	70.6 	71.2 	70.3 	70.2 	69.7 	70.2 	72.3 	71.6 
PC,TOTAL,Y_GE16,M,VG_G,FI	68.8 	69.2 	69.1 	69.7 	69.4 	70.1 	70.5 	68.3 	65.4 	69.5 	70.3 	71.7 	71.9 	70.6 
PC,TOTAL,Y_GE16,M,VG_G,FR	71.7 	72.2 	74.3 	71.8 	71.4 	70.0 	71.1 	70.5 	70.4 	71.1 	70.3 	68.3 	69.2 	69.9 
PC,TOTAL,Y_GE16,M,VG_G,HR	: 	: 	: 	: 	: 	47.9 	47.5 	48.5 	46.7 	60.9 	61.0 	62.4 	63.6 	63.3 
PC,TOTAL,Y_GE16,M,VG_G,HU	49.2 	52.2 	50.5 	58.8 	60.1 	59.1 	59.9 	61.7 	60.3 	61.0 	59.7 	63.3 	63.5 	64.2 
PC,TOTAL,Y_GE16,M,VG_G,IE	83.7 	84.3 	84.4 	85.7 	83.9 	84.0 	83.6 	82.9 	83.2 	83.2 	83.2 	82.7 	82.9 	83.8 p
PC,TOTAL,Y_GE16,M,VG_G,IS	82.3 	82.3 	82.6 	82.4 	81.8 	79.5 	79.4 	79.0 	: 	79.3 	80.1 	79.0 	: 	: 
PC,TOTAL,Y_GE16,M,VG_G,IT	61.6 	60.7 	67.5 	67.7 	67.9 	70.2 	67.9 	71.8 	70.1 	71.7 	69.0 	74.4 b	80.1 	76.3 
PC,TOTAL,Y_GE16,M,VG_G,LT	48.2 	48.9 	54.6 	50.8 	53.1 	54.7 	50.0 	50.3 	52.2 	51.1 	49.5 	49.1 	49.6 	49.0 
PC,TOTAL,Y_GE16,M,VG_G,LU	75.5 	76.2 	76.1 	75.5 	76.4 	76.7 	75.1 	75.2 	73.9 	74.6 	72.5 	71.6 b	72.5 	70.7 
PC,TOTAL,Y_GE16,M,VG_G,LV	40.6 	46.6 	47.7 	48.1 	50.9 	52.9 	50.9 	51.4 	50.4 	50.5 	51.4 	52.8 	49.9 	52.1 
PC,TOTAL,Y_GE16,M,VG_G,ME	: 	: 	: 	: 	: 	: 	: 	: 	72.8 	74.2 	72.2 	73.0 	73.4 	: 
PC,TOTAL,Y_GE16,M,VG_G,MK	: 	: 	: 	: 	: 	75.5 	76.4 	79.3 	79.5 	81.2 	79.9 	81.3 	78.7 	: 
PC,TOTAL,Y_GE16,M,VG_G,MT	73.9 	76.9 	76.7 	75.4 	70.9 	69.6 	71.8 	73.5 	73.2 	76.7 	72.0 	74.4 	77.2 	77.4 
PC,TOTAL,Y_GE16,M,VG_G,NL	79.5 	80.0 	79.1 	81.2 	80.7 	80.3 	79.6 	79.5 	79.6 	80.6 	80.1 	78.6 b	79.0 	78.3 
PC,TOTAL,Y_GE16,M,VG_G,NO	76.5 	76.4 	78.6 	79.2 	78.3 	79.2 	75.4 	79.8 	77.3 	79.9 	80.3 	79.1 	78.7 	78.8 
PC,TOTAL,Y_GE16,M,VG_G,PL	58.3 	58.8 	61.0 	61.2 	60.2 	61.5 	61.1 	61.6 	62.4 	61.6 	61.5 	62.0 	62.3 	61.9 
PC,TOTAL,Y_GE16,M,VG_G,PT	51.5 	53.3 	50.9 	54.1 	53.5 	54.8 	55.3 	54.1 	51.5 	50.6 	51.5 	52.6 	54.0 	54.5 
PC,TOTAL,Y_GE16,M,VG_G,RO	73.6 	73.6 	72.5 	73.0 	73.2 	74.1 	68.7 	73.6 	74.5 	74.7 	74.9 	76.0 	76.3 	75.8 
PC,TOTAL,Y_GE16,M,VG_G,RS	: 	: 	: 	: 	: 	: 	: 	: 	54.0 	61.6 	60.8 	60.8 	58.5 	59.8 
PC,TOTAL,Y_GE16,M,VG_G,SE	78.4 	78.6 	80.1 	80.0 	81.6 	80.8 	80.2 	81.7 	82.3 	81.1 	80.7 	77.7 	78.4 	78.4 
PC,TOTAL,Y_GE16,M,VG_G,SI	56.5 	59.6 	60.8 	61.0 	63.2 	63.3 	63.5 	66.6 	67.9 	68.1 	68.0 	68.2 	68.6 	69.2 
PC,TOTAL,Y_GE16,M,VG_G,SK	56.2 	56.9 	58.3 	65.1 	66.9 	68.5 	68.1 	71.1 	71.1 	68.6 	69.8 	70.1 	71.1 	70.7 
PC,TOTAL,Y_GE16,M,VG_G,TR	: 	68.0 	70.9 	71.9 	70.4 	70.8 	71.8 	73.0 	72.0 	72.1 	70.4 	73.3 	73.0 	: 
PC,TOTAL,Y_GE16,M,VG_G,UK	76.3 	78.1 	78.8 	81.2 	81.0 	80.6 	78.6 	76.4 	73.5 	70.3 	69.8 	69.1 	76.3 b	74.0 p
PC,TOTAL,Y_GE16,T,VG_G,AT	71.0 	71.9 	72.4 	70.1 	70.1 	69.5 	68.8 	70.0 	68.7 	69.6 	69.9 	70.3 	70.4 	71.7 
PC,TOTAL,Y_GE16,T,VG_G,BE	72.9 	74.3 	74.1 	74.0 	73.5 	73.1 	73.6 	74.5 	74.3 	75.1 	74.6 	73.7 	74.3 	74.8 
PC,TOTAL,Y_GE16,T,VG_G,BG	60.5 	60.5 	61.9 	62.6 	65.2 	67.3 	67.2 	66.7 	66.4 	66.0 	65.6 	65.8 b	66.7 	66.5 
PC,TOTAL,Y_GE16,T,VG_G,CH	: 	: 	84.0 	81.2 	81.0 	81.6 	81.3 	82.0 	80.7 	78.4 	79.6 	77.7 	80.2 	80.7 
PC,TOTAL,Y_GE16,T,VG_G,CY	75.1 	76.1 	76.8 	76.5 	75.7 	74.6 	75.8 	77.2 	76.4 	77.7 	80.3 	78.7 	78.1 	77.8 
PC,TOTAL,Y_GE16,T,VG_G,CZ	59.0 	59.3 	61.3 	61.5 	61.3 	62.4 	59.6 	60.5 	59.7 	60.8 	61.3 	60.4 	61.9 	62.1 
PC,TOTAL,Y_GE16,T,VG_G,DE	60.1 	60.5 	60.0 	64.6 	65.2 	65.3 	64.8 	65.4 	64.9 	65.2 	64.6 	65.2 	65.5 	65.5 
PC,TOTAL,Y_GE16,T,VG_G,DK	76.7 	75.1 	75.4 	74.3 	72.4 	71.2 	71.8 	71.2 	72.6 	72.4 	71.6 	71.3 	71.3 	71.2 
PC,TOTAL,Y_GE16,T,VG_G,EA18	63.9 	64.2 	65.6 	67.3 	67.2 	67.7 	67.8 	68.6 	67.4 	68.2 	67.7 	68.5 	70.3 	69.7 
PC,TOTAL,Y_GE16,T,VG_G,EA19	63.6 	64.0 	65.4 	67.2 	67.0 	67.6 	67.6 	68.5 	67.3 	68.1 	67.6 	68.4 	70.1 	69.5 
PC,TOTAL,Y_GE16,T,VG_G,EE	53.9 	53.4 	53.3 	54.6 	51.7 	52.8 	51.9 	52.5 	53.5 	51.9 	51.5 	52.9 	52.5 	51.8 
PC,TOTAL,Y_GE16,T,VG_G,EL	77.5 	76.8 	76.7 	76.1 	75.5 	75.7 	76.5 	75.1 	74.1 	73.6 	74.1 	74.0 	74.1 	76.4 
PC,TOTAL,Y_GE16,T,VG_G,ES	67.0 	67.8 	67.6 	72.5 	70.8 	72.0 	75.5 	74.4 	71.7 	72.9 	72.6 	72.5 	74.2 	73.7 
PC,TOTAL,Y_GE16,T,VG_G,EU	64.1 	64.6 	66.0 	67.9 	67.8 	68.2 	67.9 	68.3 	67.3 	67.4 	67.1 	67.6 	69.7 	69.2 
PC,TOTAL,Y_GE16,T,VG_G,EU27	: 	: 	66.0 	67.9 	67.8 	68.3 	68.0 	68.4 	67.4 	67.5 	67.1 	67.7 	69.8 	69.3 
PC,TOTAL,Y_GE16,T,VG_G,EU28	: 	: 	: 	: 	: 	68.2 	67.9 	68.3 	67.3 	67.4 	67.1 	67.6 	69.7 	69.2 
PC,TOTAL,Y_GE16,T,VG_G,FI	68.6 	68.7 	68.4 	68.6 	69.0 	68.5 	69.1 	67.2 	64.7 	69.4 	69.9 	70.3 	70.2 	69.0 
PC,TOTAL,Y_GE16,T,VG_G,FR	68.8 	69.4 	71.3 	69.3 	68.7 	67.4 	67.6 	68.2 	67.2 	68.3 	67.9 	66.4 	67.4 	67.7 
PC,TOTAL,Y_GE16,T,VG_G,HR	: 	: 	: 	: 	: 	48.2 	46.6 	46.9 	46.6 	58.1 	58.2 	59.2 	60.9 	60.7 
PC,TOTAL,Y_GE16,T,VG_G,HU	45.4 	48.3 	46.8 	55.2 	56.0 	55.1 	55.7 	57.2 	56.2 	57.0 	56.4 	59.6 	59.3 	60.7 
PC,TOTAL,Y_GE16,T,VG_G,IE	82.9 	83.1 	84.1 	84.5 	83.4 	83.3 	83.3 	82.8 	82.0 	82.5 	82.6 	82.9 	83.3 	84.1 p
PC,TOTAL,Y_GE16,T,VG_G,IS	79.5 	80.9 	79.2 	80.6 	80.3 	77.8 	77.8 	76.9 	: 	76.1 	76.4 	76.1 	: 	: 
PC,TOTAL,Y_GE16,T,VG_G,IT	57.6 	56.7 	63.3 	63.4 	63.5 	66.4 	64.6 	68.1 	66.3 	68.0 	65.8 	70.9 b	77.0 	73.3 
PC,TOTAL,Y_GE16,T,VG_G,LT	42.6 	43.5 	48.8 	46.6 	48.3 	50.2 	44.2 	44.6 	46.3 	45.0 	42.8 	43.4 	43.9 	44.0 
PC,TOTAL,Y_GE16,T,VG_G,LU	73.7 	74.2 	74.5 	74.1 	73.9 	75.3 	72.6 	73.9 	71.9 	72.9 	70.5 	69.2 b	71.1 	68.6 
PC,TOTAL,Y_GE16,T,VG_G,LV	35.0 	40.4 	42.5 	43.6 	46.1 	47.7 	46.1 	46.8 	45.3 	45.8 	46.3 	47.2 	44.2 	47.0 
PC,TOTAL,Y_GE16,T,VG_G,ME	: 	: 	: 	: 	: 	: 	: 	: 	69.3 	71.4 	68.9 	69.2 	69.5 	: 
PC,TOTAL,Y_GE16,T,VG_G,MK	: 	: 	: 	: 	: 	72.7 	73.0 	76.3 	76.2 	78.7 	77.1 	78.4 	75.4 	: 
PC,TOTAL,Y_GE16,T,VG_G,MT	71.4 	74.6 	74.3 	73.8 	68.7 	67.6 	70.0 	72.1 	71.8 	75.0 	71.2 	72.9 	75.4 	75.0 
PC,TOTAL,Y_GE16,T,VG_G,NL	76.4 	76.9 	76.3 	77.3 	77.7 	77.9 	76.4 	75.7 	75.5 	77.3 	76.2 	75.9 b	76.1 	75.7 
PC,TOTAL,Y_GE16,T,VG_G,NO	73.6 	74.4 	76.4 	76.6 	76.5 	76.8 	73.3 	78.8 	76.2 	78.5 	78.4 	77.1 	77.4 	76.6 
PC,TOTAL,Y_GE16,T,VG_G,PL	54.5 	54.7 	57.0 	57.7 	56.3 	57.9 	57.8 	57.8 	58.4 	58.3 	57.9 	58.5 	58.9 	59.2 
PC,TOTAL,Y_GE16,T,VG_G,PT	45.9 	48.1 	45.9 	48.5 	47.8 	49.3 	49.7 	48.1 	46.2 	46.0 	46.5 	47.7 	48.9 	49.3 
PC,TOTAL,Y_GE16,T,VG_G,RO	69.0 	69.0 	67.7 	68.3 	68.3 	68.6 	68.0 	68.0 	68.8 	69.2 	70.0 	70.5 	70.9 	70.6 
PC,TOTAL,Y_GE16,T,VG_G,RS	: 	: 	: 	: 	: 	: 	: 	: 	49.5 	57.4 	56.8 	57.2 	54.5 	56.4 
PC,TOTAL,Y_GE16,T,VG_G,SE	75.3 	76.0 	77.7 	76.9 	78.2 	78.4 	78.4 	79.7 	79.7 	78.5 	77.6 	75.1 	76.6 	76.1 
PC,TOTAL,Y_GE16,T,VG_G,SI	53.6 	56.4 	57.9 	58.8 	60.0 	59.7 	60.5 	63.1 	64.8 	64.8 	64.8 	64.5 	65.3 	65.4 
PC,TOTAL,Y_GE16,T,VG_G,SK	52.2 	52.2 	53.1 	59.7 	62.1 	63.7 	63.4 	65.8 	66.1 	64.7 	66.0 	66.5 	67.1 	66.7 
PC,TOTAL,Y_GE16,T,VG_G,TR	: 	62.7 	66.1 	67.3 	64.4 	65.3 	66.6 	68.0 	67.2 	67.5 	65.7 	68.8 	68.2 	: 
PC,TOTAL,Y_GE16,T,VG_G,UK	74.9 	76.6 	77.4 	80.1 	79.9 	79.7 	77.5 	74.8 	73.7 	69.9 	69.8 	69.0 	74.8 b	73.2 p
